[
  {
    "name": "theme_info",
    "theme_name": "Shaketown Brewing Co.",
    "theme_version": "1.0.0",
    "theme_author": "Very Polite Agency",
    "theme_documentation_url": "https:\/\/weareverypolite.com\/",
    "theme_support_url": "https:\/\/weareverypolite.com\/"
  },
  {
    "name": "404",
    "settings": [
      {
				"label": "Heading",
				"type": "text",
				"id": "error-404--heading"
			},
			{
				"label": "Message",
				"type": "richtext",
				"id": "error-404--message"
			},
			{
				"content": "Shakey",
				"type": "header"
			},
			{
				"label": "Message",
				"type": "richtext",
				"id": "error-404--shakey-message"
			}
    ]
  },
  {
    "name": "Age Gate",
		"settings": [
      {
				"content": "Options",
				"type": "header"
			},
			{
  		  "label": "Enable Age Gate",
        "type": "checkbox",
        "default": true,
        "id": "age-gate--enable"
      },
      {
  		  "label": "Timeout (in milliseconds)",
  		  "info": "Time before the age gate is shown",
        "type": "text",
        "default": "3000",
        "id": "age-gate--timeout"
      },
      {
  		  "label": "Cookie Expires (in days)",
        "info": "Number of days before a user is re-prompted for age verification",
        "type": "number",
        "default": 180,
        "id": "age-gate--cookie-expires"
      },
      {
        "label": "Redirect URL",
        "type": "text",
        "default": "https://pbskids.org",
        "id": "age-gate--redirect-url"
      },
      {
				"content": "Shakey",
				"type": "header"
			},
      {
  		  "label": "Message",
        "type": "richtext",
        "id": "age-gate--message"
      }
		]
  },
  {
    "name": "Business Hours",
    "settings": [
      {
        "content": "01",
        "type": "paragraph"
      },
      {
				"label": "Day",
				"type": "text",
				"id": "business-hours--day-01"
			},
      {
				"label": "Hours",
				"type": "text",
				"id": "business-hours--hours-01"
			},
      {
        "content": "02",
        "type": "paragraph"
      },
      {
				"label": "Day",
				"type": "text",
				"id": "business-hours--day-02"
			},
      {
				"label": "Hours",
				"type": "text",
				"id": "business-hours--hours-02"
			},
      {
        "content": "03",
        "type": "paragraph"
      },
      {
				"label": "Day",
				"type": "text",
				"id": "business-hours--day-03"
			},
      {
				"label": "Hours",
				"type": "text",
				"id": "business-hours--hours-03"
			},
      {
        "content": "04",
        "type": "paragraph"
      },
      {
				"label": "Day",
				"type": "text",
				"id": "business-hours--day-04"
			},
      {
				"label": "Hours",
				"type": "text",
				"id": "business-hours--hours-04"
			},
      {
        "content": "05",
        "type": "paragraph"
      },
      {
				"label": "Day",
				"type": "text",
				"id": "business-hours--day-05"
			},
      {
				"label": "Hours",
				"type": "text",
				"id": "business-hours--hours-05"
			},
      {
        "content": "06",
        "type": "paragraph"
      },
      {
				"label": "Day",
				"type": "text",
				"id": "business-hours--day-06"
			},
      {
				"label": "Hours",
				"type": "text",
				"id": "business-hours--hours-06"
			},
      {
        "content": "07",
        "type": "paragraph"
      },
      {
				"label": "Day",
				"type": "text",
				"id": "business-hours--day-07"
			},
      {
				"label": "Hours",
				"type": "text",
				"id": "business-hours--hours-07"
			}
    ]
  },
  {
    "name": "Contact Info",
    "settings": [
			{
				"label": "Email",
				"type": "text",
				"info": "Will default to the store's email as set in the Shop settings",
				"id": "contact--email"
			},
			{
				"label": "Phone",
				"type": "text",
				"info": "Will default to the store's phone as set in the Shop settings",
				"id": "contact--phone"
			}
    ]
  },
  {
    "name": "Social",
    "settings": [
      {
				"label": "Facebook",
				"type": "text",
				"id": "social--facebook"
			},
			{
				"label": "Instagram",
				"type": "text",
				"id": "social--instagram"
			},
			{
				"label": "Spotify",
				"type": "text",
				"id": "social--spotify"
			},
      {
				"label": "Twitter",
				"type": "text",
				"id": "social--twitter"
			}
    ]
  }
]
